Data Empowerment for Election Workers: Starting with Data
…
R

data
## Try also
## view(interviews)
## head(interviews)

OUTPUT

# A tibble: 352,112 × 5
   checkin_id     checkin_time        location     precinct device
   <chr>          <dttm>              <chr>           <dbl> <chr>
 1 CHECKIN_000001 2018-11-06 07:02:36 LOCATION_001     2866 DEVICE_001
 2 CHECKIN_000002 2018-11-06 07:04:09 LOCATION_001     2866 DEVICE_001
 3 CHECKIN_000003 2018-11-06 07:05:13 LOCATION_001     2866 DEVICE_001
 4 CHECKIN_000004 2018-11-06 07:06:26 LOCATION_001     2866 DEVICE_001
 5 CHECKIN_000005 2018-11-06 07:08:08 LOCATION_001     2866 DEVICE_001
 6 CHECKIN_000006 2018-11-06 07:08:32 LOCATION_001     2866 DEVICE_002
 7 CHECKIN_000007 2018-11-06 07:09:36 LOCATION_001     2866 DEVICE_001
 8 CHECKIN_000008 2018-11-06 07:10:18 LOCATION_001     2866 DEVICE_001
 9 CHECKIN_000009 2018-11-06 07:12:57 LOCATION_001     2866 DEVICE_002
10 CHECKIN_000010 2018-11-06 07:13:41 LOCATION_001     2866 DEVICE_001
# ℹ 352,102 more rows
…
OUTPUT

# A tibble: 1 × 1
  device
  <chr>
1 DEVICE_001

R

#retrieves the 1st column of the tibble as a tibble
data[1]

OUTPUT

# A tibble: 352,112 × 1
   checkin_id
   <chr>
 1 CHECKIN_000001
 2 CHECKIN_000002
 3 CHECKIN_000003
 4 CHECKIN_000004
 5 CHECKIN_000005
 6 CHECKIN_000006
 7 CHECKIN_000007
 8 CHECKIN_000008
 9 CHECKIN_000009
10 CHECKIN_000010
# ℹ 352,102 more rows
…
: is a special function that creates numeric vectors of
integers in increasing or decreasing order, test 1:10 and
10:1 for instance.

You can also exclude certain indices of a data frame using the
“-” sign:

R

#retrieves the whole tibble (minus the first column)
data[, -1]

OUTPUT

# A tibble: 352,112 × 4
   checkin_time        location     precinct device
   <dttm>              <chr>           <dbl> <chr>
 1 2018-11-06 07:02:36 LOCATION_001     2866 DEVICE_001
 2 2018-11-06 07:04:09 LOCATION_001     2866 DEVICE_001
 3 2018-11-06 07:05:13 LOCATION_001     2866 DEVICE_001
 4 2018-11-06 07:06:26 LOCATION_001     2866 DEVICE_001
 5 2018-11-06 07:08:08 LOCATION_001     2866 DEVICE_001
 6 2018-11-06 07:08:32 LOCATION_001     2866 DEVICE_002
 7 2018-11-06 07:09:36 LOCATION_001     2866 DEVICE_001
 8 2018-11-06 07:10:18 LOCATION_001     2866 DEVICE_001
 9 2018-11-06 07:12:57 LOCATION_001     2866 DEVICE_002
10 2018-11-06 07:13:41 LOCATION_001     2866 DEVICE_001
# ℹ 352,102 more rows
…
R

data$day <- day(times)
data$month <- month(times)
data$year <- year(times)
data$hour <- hour(times)
data$minute <- minute(times)
data$seconds <- second(times)

data

OUTPUT

# A tibble: 352,112 × 11
   checkin_id     checkin_time        location precinct device   day month  year
   <chr>          <dttm>              <chr>       <dbl> <chr>  <int> <dbl> <dbl>
 1 CHECKIN_000001 2018-11-06 07:02:36 LOCATIO…     2866 DEVIC…     6    11  2018
 2 CHECKIN_000002 2018-11-06 07:04:09 LOCATIO…     2866 DEVIC…     6    11  2018
 3 CHECKIN_000003 2018-11-06 07:05:13 LOCATIO…     2866 DEVIC…     6    11  2018
 4 CHECKIN_000004 2018-11-06 07:06:26 LOCATIO…     2866 DEVIC…     6    11  2018
 5 CHECKIN_000005 2018-11-06 07:08:08 LOCATIO…     2866 DEVIC…     6    11  2018
 6 CHECKIN_000006 2018-11-06 07:08:32 LOCATIO…     2866 DEVIC…     6    11  2018
 7 CHECKIN_000007 2018-11-06 07:09:36 LOCATIO…     2866 DEVIC…     6    11  2018
 8 CHECKIN_000008 2018-11-06 07:10:18 LOCATIO…     2866 DEVIC…     6    11  2018
 9 CHECKIN_000009 2018-11-06 07:12:57 LOCATIO…     2866 DEVIC…     6    11  2018
10 CHECKIN_000010 2018-11-06 07:13:41 LOCATIO…     2866 DEVIC…     6    11  2018
# ℹ 352,102 more rows
# ℹ 3 more variables: hour <int>, minute <int>, seconds <dbl>
…
